{
  "server": "http://10.88.153.54:9090",
  "appId": "KZ4S3ZTmKmisp3b2sgTjLClBV1bhL9YcMxxNP7KnSSNEY6xTNnLzTTiPZ6NvbTWnPdA93FDbi3LAwHAF",
  "disableSignalR": true,
  "signalRTransport": ["webSockets", "longPolling"],
  "baseSlug": "/avon/general/",
  "lineups": {
    "tv": 1
  },
  "epgFilePath": "http://10.88.153.54:9090/epg/",
  "analyticsProvider": "google",
  "analyticsUrl": ".",
  "analyticsSite": "UA-43547321-10",
  "trickManualStep":"",
  "trickAutoStep": "",
  "originalUrl": false,
  "startChannel": {
    "mode": "logicalnumber",
    "rfType": "Cable",
    "logicalNumber": 999
  },
  "opc": {
    "machineName": "10.88.153.173",
    "serverClass": "Siemens.OPC.Server.DA.1"
  },
  "mirth": {
    "host": "http://10.88.153.71:29991"
  },
  "eHospital": {
    "externalInput": "HDMI1"
  }
}